(edif testcircuit
    Cell -- dflipflop
      ports:
        q	(width: 1)
        d	(width: 1)
    Cell -- random
      ports:
        b	(width: 1)
        a	(width: 1)
        q	(width: 1)
        d	(width: 1)
    Cell -- and2
      ports:
        x	(width: 1)
        b	(width: 1)
        a	(width: 1)
    Cell -- and3
      ports:
        x	(width: 1)
        b	(width: 1)
        a	(width: 1)
        c	(width: 1)
    Cell -- testcircuit
      ports:
        in	(width: 1)
        out	(width: 1)

)
