BGI,Home,04/05/06,08:50:52,09:50:14,00:59:22,"usclean check and emails|DEV MCP work|"
LANL,Home,04/06/06,20:48:42,23:34:28,02:45:46,"Router debug|"
BGI,Home,04/07/06,13:06:50,13:17:05,00:10:15,"Job and email check|Citrix access issues|"
BGI,Home,04/07/06,13:17:05,13:33:08,00:16:03,"More job checks|"
LANL,Home,04/07/06,13:33:08,16:46:23,03:13:15,"Router - adding edge I/O|"
