Circuit Name=testckt
dims=10x10
EDGE I/O:
in:in:side= ;cells=-1,-1
d:in:side= ;cells=-1,-1
ld:in:side= ;cells=-1,-1
q:in:side= ;cells=-1,-1

INSTANCES:
ff4(DFF1) IO assignments: set(index=0) clr(index=1) q(index=2) d(index=3) 
Component is 1x3
ff3(DFF1) IO assignments: set(index=0) clr(index=1) q(index=2) d(index=3) 
Component is 1x3
ff2(DFF1) IO assignments: set(index=0) clr(index=1) q(index=2) d(index=3) 
Component is 1x3
ff1(DFF1) IO assignments: set(index=0) clr(index=1) q(index=2) d(index=3) 
Component is 1x3

LIBRARY ENTRIES:
random
IO[0]:a=[0,0]dni
IO[1]:b=[0,1]dni
IO[2]:d=[0,0]dwi
IO[3]:q=[1,0]dwo

dflipflop
IO[0]:d=[0,0]dwi
IO[1]:ld=[0,0]dni
IO[2]:q=[0,2]deo

and2
IO[0]:a=[0,0]dwi
IO[1]:b=[0,0]dsi
IO[2]:x=[0,0]deo

DFF1
IO[0]:set=[0,1]dsi
IO[1]:clr=[0,1]dni
IO[2]:q=[0,0]dwo
IO[3]:d=[0,2]dwi

and3
IO[0]:a=[0,1]dni
IO[1]:b=[1,0]dsi
IO[2]:c=[1,1]dwi
IO[3]:x=[0,1]dso



NETS:
[ff2:1 ff1:2 ff2:0 ]
[ff2:2 ff3:1 ff3:0 ]
[ff3:2 ff4:1 ff4:0 ]
[ff4:2 ff1:1 ff1:0 ]


TESTING NETWORK RETRIEVAL PROCEDURES
NEW NETWORK: ff2.1 ff1.2 ff2.0 
NEW NETWORK: ff2.2 ff3.1 ff3.0 
NEW NETWORK: ff3.2 ff4.1 ff4.0 
NEW NETWORK: ff4.2 ff1.1 ff1.0 
Smallest range: ind=0 range=20
Smallest range: ind=1 range=20
Smallest range: ind=2 range=20
Smallest range: ind=3 range=20
init temp=1
# moves per temp=158
a:ff4(DFF1)
b:ff3(DFF1)
c:ff2(DFF1)
d:ff1(DFF1)

02.....13.
...b......
.c.b......
.c.b......
.c........
..........
..........
....aaa...
..........
..........

Cost=22.96 R=0.550633 New temp=9.72324e-06 New D=91236580                           
..1.......
..........
..........
2.........
......c...
..a...c...
0.a.b.c...
..a.b....3
....b.ddd.
..........

a:ff4(DFF1)
b:ff3(DFF1)
c:ff2(DFF1)
d:ff1(DFF1)

Beginning routing
Net 1: [8,6]w(edge=0) [5,6]w(edge=0) [5,6]e(edge=0) 

Net 2: [6,6]s(edge=0) [7,4]e(edge=0) [7,4]w(edge=0) 

Net 3: [6,4]n(edge=0) [6,2]w(edge=0) [6,2]e(edge=0) 

Net 4: [7,2]s(edge=0) [8,7]n(edge=0) [8,7]s(edge=0) 

[5,6]w <-- [5,5]s  <-- [6,5]s  <-- [7,5]s  <-- [8,5]e  <-- [8,6]w  
[5,6]e <-- [5,7]s  <-- [6,7]s  <-- [7,7]w  <-- [7,6]w  <-- [7,5]s  
[7,4]e <-- [7,5]e  <-- [7,6]n  <-- [6,6]s  
[7,4]w <-- [7,3]n  <-- [6,3]n  <-- [5,3]e  <-- [5,4]e  <-- [5,5]s  <-- [6,5]s  <-- [7,5]e  
[6,2]w <-- [6,1]n  <-- [5,1]n  <-- [4,1]e  <-- [4,2]e  <-- [4,3]e  <-- [4,4]s  <-- [5,4]s  <-- [6,4]n  
[6,2]e <-- [6,3]n  <-- [5,3]n  <-- [4,3]e  
[8,7]s <-- [9,7]w  <-- [9,6]w  <-- [9,5]w  <-- [9,4]w  <-- [9,3]w  <-- [9,2]n  <-- [8,2]n  <-- [7,2]s  
[8,7]n <-- [7,7]w  <-- [7,6]w  <-- [7,5]s  <-- [8,5]s  <-- [9,5]w  
OVER-ROUTED RESOURCES:
[5,5] pcost(nswe)=1 2 1 1 hcost(nswe)=0 1 0 0
[6,3] pcost(nswe)=2 1 1 1 hcost(nswe)=1 0 0 0
[6,5] pcost(nswe)=1 2 1 1 hcost(nswe)=0 1 0 0
[7,5] pcost(nswe)=1 2 1 1 hcost(nswe)=0 1 0 0
[7,6] pcost(nswe)=1 1 2 1 hcost(nswe)=0 0 1 0
[7,7] pcost(nswe)=1 1 2 1 hcost(nswe)=0 0 1 0
[5,6]w <-- [5,5]w  <-- [5,4]w  <-- [5,3]s  <-- [6,3]s  <-- [7,3]s  <-- [8,3]s  <-- [9,3]e  <-- [9,4]e  <-- [9,5]n  <-- [8,5]e  <-- [8,6]w  
[5,6]e <-- [5,7]n  <-- [4,7]n  <-- [3,7]w  <-- [3,6]w  <-- [3,5]s  <-- [4,5]s  <-- [5,5]w  
[7,4]e <-- [7,5]e  <-- [7,6]n  <-- [6,6]s  
[7,4]w <-- [7,3]s  <-- [8,3]s  <-- [9,3]e  <-- [9,4]e  <-- [9,5]n  <-- [8,5]n  <-- [7,5]e  
[6,2]e <-- [6,3]n  <-- [5,3]e  <-- [5,4]s  <-- [6,4]n  
[6,2]w <-- [6,1]n  <-- [5,1]n  <-- [4,1]e  <-- [4,2]e  <-- [4,3]s  <-- [5,3]e  
[8,7]s <-- [9,7]w  <-- [9,6]w  <-- [9,5]w  <-- [9,4]w  <-- [9,3]w  <-- [9,2]n  <-- [8,2]n  <-- [7,2]s  
[8,7]n <-- [7,7]w  <-- [7,6]w  <-- [7,5]s  <-- [8,5]s  <-- [9,5]w  
OVER-ROUTED RESOURCES:
[7,3] pcost(nswe)=1 2 1 1 hcost(nswe)=0 1 0 0
[8,3] pcost(nswe)=1 2 1 1 hcost(nswe)=0 1 0 0
[9,3] pcost(nswe)=1 1 1 2 hcost(nswe)=0 0 0 1
[9,4] pcost(nswe)=1 1 1 2 hcost(nswe)=0 0 0 1
[9,5] pcost(nswe)=2 1 1 1 hcost(nswe)=1 0 0 0
[5,6]w <-- [5,5]w  <-- [5,4]w  <-- [5,3]s  <-- [6,3]s  <-- [7,3]s  <-- [8,3]w  <-- [8,2]s  <-- [9,2]e  <-- [9,3]e  <-- [9,4]e  <-- [9,5]n  <-- [8,5]e  <-- [8,6]w  
[5,6]e <-- [5,7]n  <-- [4,7]n  <-- [3,7]w  <-- [3,6]w  <-- [3,5]s  <-- [4,5]s  <-- [5,5]w  
[7,4]e <-- [7,5]e  <-- [7,6]n  <-- [6,6]s  
[7,4]w <-- [7,3]n  <-- [6,3]n  <-- [5,3]e  <-- [5,4]e  <-- [5,5]s  <-- [6,5]s  <-- [7,5]e  
[6,2]w <-- [6,1]n  <-- [5,1]n  <-- [4,1]e  <-- [4,2]e  <-- [4,3]e  <-- [4,4]s  <-- [5,4]s  <-- [6,4]n  
[6,2]e <-- [6,3]n  <-- [5,3]n  <-- [4,3]e  
[8,7]s <-- [9,7]w  <-- [9,6]w  <-- [9,5]w  <-- [9,4]w  <-- [9,3]w  <-- [9,2]n  <-- [8,2]n  <-- [7,2]s  
[8,7]n <-- [7,7]w  <-- [7,6]w  <-- [7,5]s  <-- [8,5]s  <-- [9,5]w  
OVER-ROUTED RESOURCES:
[6,3] pcost(nswe)=2 1 1 1 hcost(nswe)=2 0 0 0
[5,6]w <-- [5,5]w  <-- [5,4]w  <-- [5,3]s  <-- [6,3]s  <-- [7,3]s  <-- [8,3]s  <-- [9,3]e  <-- [9,4]e  <-- [9,5]n  <-- [8,5]e  <-- [8,6]w  
[5,6]e <-- [5,7]n  <-- [4,7]n  <-- [3,7]w  <-- [3,6]w  <-- [3,5]s  <-- [4,5]s  <-- [5,5]w  
[7,4]e <-- [7,5]e  <-- [7,6]n  <-- [6,6]s  
[7,4]w <-- [7,3]s  <-- [8,3]s  <-- [9,3]e  <-- [9,4]e  <-- [9,5]n  <-- [8,5]n  <-- [7,5]e  
[6,2]w <-- [6,1]n  <-- [5,1]n  <-- [4,1]e  <-- [4,2]e  <-- [4,3]e  <-- [4,4]s  <-- [5,4]s  <-- [6,4]n  
[6,2]e <-- [6,3]s  <-- [7,3]s  <-- [8,3]w  <-- [8,2]w  <-- [8,1]n  <-- [7,1]n  <-- [6,1]n  
[8,7]s <-- [9,7]w  <-- [9,6]w  <-- [9,5]w  <-- [9,4]w  <-- [9,3]w  <-- [9,2]n  <-- [8,2]n  <-- [7,2]s  
[8,7]n <-- [7,7]w  <-- [7,6]w  <-- [7,5]s  <-- [8,5]s  <-- [9,5]w  
OVER-ROUTED RESOURCES:
[6,3] pcost(nswe)=1 2 1 1 hcost(nswe)=2 1 0 0
[7,3] pcost(nswe)=1 3 1 1 hcost(nswe)=0 2 0 0
[8,3] pcost(nswe)=1 2 1 1 hcost(nswe)=0 2 0 0
[9,3] pcost(nswe)=1 1 1 2 hcost(nswe)=0 0 0 2
[9,4] pcost(nswe)=1 1 1 2 hcost(nswe)=0 0 0 2
[9,5] pcost(nswe)=2 1 1 1 hcost(nswe)=2 0 0 0
[5,6]w <-- [5,5]n  <-- [4,5]w  <-- [4,4]w  <-- [4,3]w  <-- [4,2]w  <-- [4,1]s  <-- [5,1]s  <-- [6,1]s  <-- [7,1]s  <-- [8,1]e  <-- [8,2]s  <-- [9,2]e  <-- [9,3]e  <-- [9,4]e  <-- [9,5]n  <-- [8,5]e  <-- [8,6]w  
[5,6]e <-- [5,7]n  <-- [4,7]n  <-- [3,7]w  <-- [3,6]w  <-- [3,5]s  <-- [4,5]w  
[7,4]e <-- [7,5]e  <-- [7,6]n  <-- [6,6]s  
[7,4]w <-- [7,3]n  <-- [6,3]n  <-- [5,3]e  <-- [5,4]e  <-- [5,5]s  <-- [6,5]s  <-- [7,5]e  
[6,2]w <-- [6,1]n  <-- [5,1]n  <-- [4,1]e  <-- [4,2]e  <-- [4,3]e  <-- [4,4]s  <-- [5,4]s  <-- [6,4]n  
[6,2]e <-- [6,3]n  <-- [5,3]n  <-- [4,3]e  
[8,7]s <-- [9,7]w  <-- [9,6]w  <-- [9,5]w  <-- [9,4]w  <-- [9,3]w  <-- [9,2]n  <-- [8,2]n  <-- [7,2]s  
[8,7]n <-- [7,7]w  <-- [7,6]w  <-- [7,5]s  <-- [8,5]s  <-- [9,5]w  
OVER-ROUTED RESOURCES:
[6,3] pcost(nswe)=2 1 1 1 hcost(nswe)=3 1 0 0
[5,6]w <-- [5,5]w  <-- [5,4]w  <-- [5,3]s  <-- [6,3]s  <-- [7,3]s  <-- [8,3]w  <-- [8,2]s  <-- [9,2]e  <-- [9,3]e  <-- [9,4]e  <-- [9,5]n  <-- [8,5]e  <-- [8,6]w  
[5,6]e <-- [5,7]n  <-- [4,7]n  <-- [3,7]w  <-- [3,6]w  <-- [3,5]s  <-- [4,5]s  <-- [5,5]w  
[7,4]e <-- [7,5]e  <-- [7,6]n  <-- [6,6]s  
[7,4]w <-- [7,3]n  <-- [6,3]n  <-- [5,3]e  <-- [5,4]e  <-- [5,5]s  <-- [6,5]s  <-- [7,5]e  
[6,2]w <-- [6,1]n  <-- [5,1]n  <-- [4,1]e  <-- [4,2]e  <-- [4,3]e  <-- [4,4]s  <-- [5,4]s  <-- [6,4]n  
[6,2]e <-- [6,3]s  <-- [7,3]s  <-- [8,3]w  <-- [8,2]w  <-- [8,1]n  <-- [7,1]n  <-- [6,1]n  
[8,7]s <-- [9,7]w  <-- [9,6]w  <-- [9,5]w  <-- [9,4]w  <-- [9,3]w  <-- [9,2]n  <-- [8,2]n  <-- [7,2]s  
[8,7]n <-- [7,7]w  <-- [7,6]w  <-- [7,5]s  <-- [8,5]s  <-- [9,5]w  
OVER-ROUTED RESOURCES:
[6,3] pcost(nswe)=1 2 1 1 hcost(nswe)=3 2 0 0
[7,3] pcost(nswe)=1 2 1 1 hcost(nswe)=0 3 0 0
[8,3] pcost(nswe)=1 1 2 1 hcost(nswe)=0 2 1 0
[5,6]w <-- [5,5]n  <-- [4,5]w  <-- [4,4]w  <-- [4,3]w  <-- [4,2]w  <-- [4,1]s  <-- [5,1]s  <-- [6,1]s  <-- [7,1]s  <-- [8,1]e  <-- [8,2]s  <-- [9,2]e  <-- [9,3]e  <-- [9,4]e  <-- [9,5]n  <-- [8,5]e  <-- [8,6]w  
[5,6]e <-- [5,7]n  <-- [4,7]n  <-- [3,7]w  <-- [3,6]w  <-- [3,5]s  <-- [4,5]w  
[7,4]e <-- [7,5]e  <-- [7,6]n  <-- [6,6]s  
[7,4]w <-- [7,3]n  <-- [6,3]n  <-- [5,3]e  <-- [5,4]e  <-- [5,5]s  <-- [6,5]s  <-- [7,5]e  
[6,2]w <-- [6,1]n  <-- [5,1]n  <-- [4,1]e  <-- [4,2]e  <-- [4,3]e  <-- [4,4]s  <-- [5,4]s  <-- [6,4]n  
[6,2]e <-- [6,3]n  <-- [5,3]n  <-- [4,3]e  
[8,7]s <-- [9,7]w  <-- [9,6]w  <-- [9,5]w  <-- [9,4]w  <-- [9,3]w  <-- [9,2]n  <-- [8,2]n  <-- [7,2]s  
[8,7]n <-- [7,7]w  <-- [7,6]w  <-- [7,5]s  <-- [8,5]s  <-- [9,5]w  
OVER-ROUTED RESOURCES:
[6,3] pcost(nswe)=2 1 1 1 hcost(nswe)=4 2 0 0
[5,6]w <-- [5,5]n  <-- [4,5]w  <-- [4,4]w  <-- [4,3]w  <-- [4,2]w  <-- [4,1]s  <-- [5,1]s  <-- [6,1]s  <-- [7,1]s  <-- [8,1]e  <-- [8,2]s  <-- [9,2]e  <-- [9,3]e  <-- [9,4]e  <-- [9,5]n  <-- [8,5]e  <-- [8,6]w  
[5,6]e <-- [5,7]n  <-- [4,7]n  <-- [3,7]w  <-- [3,6]w  <-- [3,5]s  <-- [4,5]w  
[7,4]e <-- [7,5]e  <-- [7,6]n  <-- [6,6]s  
[7,4]w <-- [7,3]n  <-- [6,3]n  <-- [5,3]e  <-- [5,4]e  <-- [5,5]s  <-- [6,5]s  <-- [7,5]e  
[6,2]w <-- [6,1]n  <-- [5,1]n  <-- [4,1]e  <-- [4,2]e  <-- [4,3]e  <-- [4,4]s  <-- [5,4]s  <-- [6,4]n  
[6,2]e <-- [6,3]n  <-- [5,3]n  <-- [4,3]e  
[8,7]s <-- [9,7]w  <-- [9,6]w  <-- [9,5]w  <-- [9,4]w  <-- [9,3]w  <-- [9,2]n  <-- [8,2]n  <-- [7,2]s  
[8,7]n <-- [7,7]w  <-- [7,6]w  <-- [7,5]s  <-- [8,5]s  <-- [9,5]w  
OVER-ROUTED RESOURCES:
[6,3] pcost(nswe)=2 1 1 1 hcost(nswe)=5 2 0 0
[5,6]w <-- [5,5]n  <-- [4,5]w  <-- [4,4]w  <-- [4,3]w  <-- [4,2]w  <-- [4,1]s  <-- [5,1]s  <-- [6,1]s  <-- [7,1]s  <-- [8,1]e  <-- [8,2]s  <-- [9,2]e  <-- [9,3]e  <-- [9,4]e  <-- [9,5]n  <-- [8,5]e  <-- [8,6]w  
[5,6]e <-- [5,7]n  <-- [4,7]n  <-- [3,7]w  <-- [3,6]w  <-- [3,5]s  <-- [4,5]w  
[7,4]e <-- [7,5]e  <-- [7,6]n  <-- [6,6]s  
[7,4]w <-- [7,3]s  <-- [8,3]s  <-- [9,3]e  <-- [9,4]e  <-- [9,5]n  <-- [8,5]n  <-- [7,5]e  
[6,2]w <-- [6,1]n  <-- [5,1]n  <-- [4,1]e  <-- [4,2]e  <-- [4,3]e  <-- [4,4]s  <-- [5,4]s  <-- [6,4]n  
[6,2]e <-- [6,3]s  <-- [7,3]s  <-- [8,3]w  <-- [8,2]w  <-- [8,1]n  <-- [7,1]n  <-- [6,1]n  
[8,7]s <-- [9,7]w  <-- [9,6]w  <-- [9,5]w  <-- [9,4]w  <-- [9,3]w  <-- [9,2]n  <-- [8,2]n  <-- [7,2]s  
[8,7]n <-- [7,7]w  <-- [7,6]w  <-- [7,5]s  <-- [8,5]s  <-- [9,5]w  
OVER-ROUTED RESOURCES:
[7,3] pcost(nswe)=1 2 1 1 hcost(nswe)=0 4 0 0
[9,3] pcost(nswe)=1 1 1 2 hcost(nswe)=0 0 0 3
[9,4] pcost(nswe)=1 1 1 2 hcost(nswe)=0 0 0 3
[9,5] pcost(nswe)=2 1 1 1 hcost(nswe)=3 0 0 0
[5,6]w <-- [5,5]n  <-- [4,5]w  <-- [4,4]w  <-- [4,3]w  <-- [4,2]w  <-- [4,1]s  <-- [5,1]s  <-- [6,1]s  <-- [7,1]s  <-- [8,1]e  <-- [8,2]s  <-- [9,2]e  <-- [9,3]e  <-- [9,4]e  <-- [9,5]n  <-- [8,5]e  <-- [8,6]w  
[5,6]e <-- [5,7]n  <-- [4,7]n  <-- [3,7]w  <-- [3,6]w  <-- [3,5]s  <-- [4,5]w  
[7,4]e <-- [7,5]e  <-- [7,6]n  <-- [6,6]s  
[7,4]w <-- [7,3]n  <-- [6,3]n  <-- [5,3]e  <-- [5,4]e  <-- [5,5]s  <-- [6,5]s  <-- [7,5]e  
[6,2]w <-- [6,1]n  <-- [5,1]n  <-- [4,1]e  <-- [4,2]e  <-- [4,3]e  <-- [4,4]s  <-- [5,4]s  <-- [6,4]n  
[6,2]e <-- [6,3]n  <-- [5,3]n  <-- [4,3]e  
[8,7]s <-- [9,7]w  <-- [9,6]w  <-- [9,5]w  <-- [9,4]w  <-- [9,3]w  <-- [9,2]n  <-- [8,2]n  <-- [7,2]s  
[8,7]n <-- [7,7]w  <-- [7,6]w  <-- [7,5]s  <-- [8,5]s  <-- [9,5]w  
OVER-ROUTED RESOURCES:
[6,3] pcost(nswe)=2 1 1 1 hcost(nswe)=6 2 0 0
[5,6]w <-- [5,5]n  <-- [4,5]w  <-- [4,4]w  <-- [4,3]w  <-- [4,2]w  <-- [4,1]s  <-- [5,1]s  <-- [6,1]s  <-- [7,1]s  <-- [8,1]e  <-- [8,2]s  <-- [9,2]e  <-- [9,3]e  <-- [9,4]e  <-- [9,5]n  <-- [8,5]e  <-- [8,6]w  
[5,6]e <-- [5,7]n  <-- [4,7]n  <-- [3,7]w  <-- [3,6]w  <-- [3,5]s  <-- [4,5]w  
[7,4]e <-- [7,5]e  <-- [7,6]n  <-- [6,6]s  
[7,4]w <-- [7,3]n  <-- [6,3]n  <-- [5,3]e  <-- [5,4]e  <-- [5,5]s  <-- [6,5]s  <-- [7,5]e  
[6,2]w <-- [6,1]n  <-- [5,1]n  <-- [4,1]e  <-- [4,2]e  <-- [4,3]e  <-- [4,4]s  <-- [5,4]s  <-- [6,4]n  
[6,2]e <-- [6,3]s  <-- [7,3]s  <-- [8,3]w  <-- [8,2]w  <-- [8,1]n  <-- [7,1]n  <-- [6,1]n  
[8,7]s <-- [9,7]w  <-- [9,6]w  <-- [9,5]w  <-- [9,4]w  <-- [9,3]w  <-- [9,2]n  <-- [8,2]n  <-- [7,2]s  
[8,7]n <-- [7,7]w  <-- [7,6]w  <-- [7,5]s  <-- [8,5]s  <-- [9,5]w  
OVER-ROUTED RESOURCES:
